1
1
72
100
467
605
1087
1119
1218
1247
1295
1410
1416
1616
1772
2026
2048
2327
2346
2404
2446
2456
2492
2746
2988
3426
3476
3521
3556
3621
3700
3728
3878
3888
3902
3903
4095
4207
4257
4321
4459
4534
4729
4845
4892
4958
5023
5028
5030
5094
5252
5256
5425
5598
5605
5911
5976
6074
6124
6222
6268
6296
6330
6368
6389
6397
6500
6501
6541
6592
6723
6807
6828
6881
6951
7042
7142
7200
7247
7378
7416
7426
7588
8103
8382
8691
8729
8731
8747
8951
9024
9057
9356
9473
9511
9542
9555
9621
9702
9729
9786
9882
9989
