20																			
898 1330 1978 2556	2594	2544	2936	2238	2093	2658	2930	3703	2365	2451	4750	3345	2700	4601	3190
1343	1992	2570	2608	2558	2950	2252	2107	2672	2943	3717	2379	2465	4764	3359	2714	4615	3204
676	1587	1625	1278	1759	1346	1319	2912	3043	3816	2479	2565	4863	3458	2254	4715	2744
1177	1215	595	1077	833	859	3207	3337	4110	2773	2859	5157	3752	2548	5009	3038
396	1554	1576	1081	1106	4562	4693	5466	4128	4214	6513	5108	3903	6365	4394
1666	1689	685	711	4675	4806	5579	4241	4327	6626	5221	4016	6477	4507
480	1008	1033	3408	3362	4135	2797	2883	5182	3777	2579	5034	2674
1488	1513	3773	3726	4500	3162	3248	5546	4142	2943	5398	3038
25	4016	4147	4920	3583	3669	5967	4562	3358	5819	3501
4127	4168	4941	3603	3689	5988	4583	3468	5839	3612
384	1611	911	997	2555	1802	2082	2406	2477
1294	1050	1137	2694	1941	2221	2546	2616
1104	1190	2748	1995	2275	2599	2670
86	2175	1094	1468	2026	1760
2089	1008	1382	1940	1673
1635	2561	759	2310
1155	1426	665
2038	723
1843

